STA314F19
…
Now we would like to make predictions and evaluate them.

# We can combine everything into one pipe!
logreg_results <- df_test %>%
  dplyr::select(Direction) %>% # Pick just the labels
  as_tibble() %>% # Make sure they are a tibble
  mutate(
    log_reg_class = predict(logreg_fit, new_data = df_test) %>% pull(.pred_class), # Extracts the class predictions
    log_reg_prob = predict(logreg_fit, new_data = df_test, type = "prob") %>% pull(.pred_Up) # Extracts the probiablities 
  )

predict(logreg_fit, new_data = df_test) # See what the predictions look like

## # A tibble: 375 x 1
##    .pred_class
##    <fct>      
##  1 Down       
##  2 Down       
##  3 Down       
##  4 Down       
##  5 Down       
##  6 Down       
##  7 Down       
##  8 Down       
##  9 Up         
## 10 Down       
## # … with 365 more rows

predict(logreg_fit, new_data = df_test, type = "prob") # See what the probabilites look like

## # A tibble: 375 x 2
##    .pred_Down .pred_Up
##         <dbl>    <dbl>
##  1      0.532    0.468
##  2      0.559    0.441
##  3      0.515    0.485
##  4      0.573    0.427
##  5      0.520    0.480
##  6      0.559    0.441
##  7      0.529    0.471
##  8      0.535    0.465
##  9      0.432    0.568
## 10      0.573    0.427
## # … with 365 more rows
…
